Vivado/CPU.sim/sim_1/behav/xsim/dump.vcd
$date
   Wed Oct 31 15:48:23 2018
$end
$version
  2018.2
$end
$timescale
  1ps
$end
$scope module CPU_tb $end
$var reg 1 ! clk $end
$var reg 1 " rst $end
$scope module cpu_dut $end
$var wire 1 # clk $end
$var wire 1 $ rst $end
$var wire 4 % alu_op [3:0] $end
$var wire 8 & alu_a [7:0] $end
$var wire 8 ' alu_b [7:0] $end
$var wire 8 ( alu_c [7:0] $end
$var wire 8 ) alu_flags [7:0] $end
$var wire 8 * alu_newFlags [7:0] $end
$var wire 1 + mem_rw $end
$var wire 16 , mem_addr [15:0] $end
$var wire 8 - mem_data [7:0] $end
$var wire 8 . mem_Q [7:0] $end
$scope module cu $end
$var wire 1 # clk $end
$var wire 1 $ rst $end
$var reg 4 / alu_op [3:0] $end
$var reg 8 0 alu_a [7:0] $end
$var reg 8 1 alu_b [7:0] $end
$var wire 8 ) alu_flags [7:0] $end
$var wire 8 * alu_newFlags [7:0] $end
$var wire 8 ( alu_c [7:0] $end
$var reg 1 2 mem_rw $end
$var reg 16 3 mem_addr [15:0] $end
$var reg 8 4 mem_data [7:0] $end
$var wire 8 . mem_Q [7:0] $end
$var reg 4 5 CPU_state [3:0] $end
$var reg 4 6 CPU_nextState [3:0] $end
$var reg 16 7 CPU_instruction [15:0] $end
$var reg 8 8 CPU_flags [7:0] $end
$var reg 16 9 IP [15:0] $end
$var reg 16 : m_IP [15:0] $end
$var reg 16 ; calc_IP [15:0] $end
$var reg 8 < m_instruction_lo [7:0] $end
$var reg 8 = m_instruction_hi [7:0] $end
$var reg 4 > m_alu_op [3:0] $end
$var reg 8 ? m_alu_a [7:0] $end
$var reg 8 @ m_alu_b [7:0] $end
$var reg 8 A m_flags [7:0] $end
$var reg 8 B m_RegisterData [7:0] $end
$var reg 5 C m_RegisterAddr [4:0] $end
$var reg 1 D m_mem_rw $end
$var reg 16 E m_mem_addr [15:0] $end
$var reg 8 F m_mem_data [7:0] $end
$var integer 32 G i $end
$var parameter 4 H STATE_FETCH_LO [3:0] $end
$var parameter 4 I STATE_FETCH_LO_READ [3:0] $end
$var parameter 4 J STATE_FETCH_HI [3:0] $end
$var parameter 4 K STATE_FETCH_HI_READ [3:0] $end
$var parameter 4 L STATE_DECODE [3:0] $end
$var parameter 4 M STATE_EXE_ALU [3:0] $end
$var parameter 4 N STATE_EXE_JUMP [3:0] $end
$var parameter 4 O STATE_EXE_MOVE_RTR [3:0] $end
$var parameter 4 P STATE_EXE_MOVE_MTR [3:0] $end
$var parameter 4 Q STATE_EXE_MOVE_RTM [3:0] $end
$var parameter 4 R STATE_EXE_MOVE_IMM [3:0] $end
$var parameter 4 S INSTR_ALU [3:0] $end
$var parameter 4 T INSTR_MOVE [3:0] $end
$var parameter 4 U INSTR_MOVEI [3:0] $end
$var parameter 4 V INSTR_JUMP [3:0] $end
$var parameter 4 W JUMP [3:0] $end
$var parameter 4 X JUMP_IF_EQUAL [3:0] $end
$var parameter 4 Y JUMP_IF_NOT_EQUAL [3:0] $end
$var parameter 4 Z JUMP_IF_GREATER [3:0] $end
$var parameter 4 [ JUMP_IF_NOT_GREATER [3:0] $end
$var parameter 32 \ EQ_BIT [31:0] $end
$var parameter 32 ] GRT_BIT [31:0] $end
$upscope $end
$scope module alu $end
$var wire 4 % op [3:0] $end
$var wire 8 & A [7:0] $end
$var wire 8 ' B [7:0] $end
$var wire 8 ) flags [7:0] $end
$var reg 8 ^ C [7:0] $end
$var reg 8 _ newFlags [7:0] $end
$var parameter 4 ` ALU_OP_ADD [3:0] $end
$var parameter 4 a ALU_OP_SUB [3:0] $end
$var parameter 4 b ALU_OP_AND [3:0] $end
$var parameter 4 c ALU_OP_OR [3:0] $end
$var parameter 4 d ALU_OP_XOR [3:0] $end
$var parameter 4 e ALU_OP_NOT [3:0] $end
$var parameter 4 f ALU_OP_CMP [3:0] $end
$var parameter 32 g EQ_BIT [31:0] $end
$var parameter 32 h GRT_BIT [31:0] $end
$upscope $end
$scope module mem $end
$var wire 1 # clk $end
$var wire 1 + rw $end
$var wire 16 , addr [15:0] $end
$var wire 8 - data [7:0] $end
$var reg 8 i q [7:0] $end
$var parameter 32 j DATA_WIDTH [31:0] $end
$var parameter 32 k ADDR_WIDTH [31:0] $end
$var parameter 32 l RAM_DEPTH [31:0] $end
$upscope $end
$upscope $end
$upscope $end
$enddefinitions $end
#0
$dumpvars
0!
1"
0#
1$
bx %
bx &
bx '
bx (
bx )
bx *
x+
bx ,
bx -
bx .
bx /
bx 0
bx 1
x2
bx 3
bx 4
bx 5
bx 6
bx 7
bx 8
bx 9
bx :
bx ;
bx <
bx =
bx >
bx ?
bx @
bx A
bx B
bx C
xD
bx E
bx F
bx G
b0 H
b1 I
b10 J
b11 K
b100 L
b101 M
b110 N
b111 O
b1000 P
b1001 Q
b1010 R
b0 S
b1 T
b10 U
b100 V
b0 W
b1 X
b10 Y
b11 Z
b100 [
b0 \
b1 ]
bx ^
bx _
b0 `
b1 a
b10 b
b11 c
b100 d
b101 e
b110 f
b0 g
b1 h
bx i
b1000 j
b1000 k
b100000000 l
$end
#20000
1!
1#
b0 )
b0 *
0+
b0 ,
b0 -
02
b0 3
b0 4
b0 5
b1 6
b0 7
b0 8
b0 9
b0 :
b0 <
b0 =
b0 A
0D
b0 E
bx ^
b0 _
bx i
#40000
0!
0#
#60000
1!
1#
b0 .
02
b0 3
b0 4
b0 5
b1 6
b0 7
b0 8
b0 9
b0 :
b0 <
b0 =
b0 A
b0 E
b0 i
#80000
0!
0"
0#
0$
#100000
1!
1#
bx -
02
b0 3
bx 4
b1 5
b0 7
b0 8
b0 9
b0 :
b0 <
b0 =
b0 A
b0 i
#101000
b10 6
b0 <
#120000
0!
0#
#140000
1!
1#
02
b0 3
bx 4
b10 5
b11 6
b0 7
b0 8
b0 9
b0 :
b0 <
b0 =
b0 A
b1 E
b0 i
#160000
0!
0#
#180000
1!
1#
b1 ,
02
b1 3
bx 4
b11 5
b0 7
b0 8
b0 9
b0 :
b0 <
b0 =
b0 A
b0 i
#181000
b100 6
b0 =
#200000
0!
0#
#220000
1!
1#
b100000 .
02
b1 3
bx 4
b100 5
b0 7
b0 8
b0 9
b0 :
b0 <
b0 =
b0 A
b100000 i
#221000
b100 6
b100000 =
#240000
0!
0#
#260000
1!
1#
02
b1 3
bx 4
b100 5
b1010 6
b10000000000000 7
b0 8
b0 9
b0 :
b0 <
b100000 =
b0 A
b10000 G
b100000 i
#280000
0!
0#
#300000
1!
1#
02
b1 3
bx 4
b1010 5
b0 6
b10000000000000 7
b0 8
b0 9
b10 :
b0 <
b100000 =
b0 A
b0 B
b0 C
b10000 G
b100000 i
#320000
0!
0#
#340000
1!
1#
02
b1 3
bx 4
b0 5
b1 6
b10000000000000 7
b0 8
b10 9
b10 :
b0 <
b100000 =
b0 A
b10 E
b100000 i
#360000
0!
0#
#380000
1!
1#
b10 ,
02
b10 3
bx 4
b1 5
b10000000000000 7
b0 8
b10 9
b10 :
b0 <
b100000 =
b0 A
b100000 i
#381000
b10 6
b100000 <
#400000
0!
0#
#420000
1!
1#
b1 .
02
b10 3
bx 4
b10 5
b10000000100000 7
b0 8
b10 9
b10 :
b0 <
b100000 =
b0 A
b1 i
#421000
b10 6
b1 <
#440000
0!
0#
#460000
1!
1#
02
b10 3
bx 4
b10 5
b11 6
b10000000000001 7
b0 8
b10 9
b10 :
b1 <
b100000 =
b0 A
b11 E
b1 i
#480000
0!
0#
#500000
1!
1#
b11 ,
02
b11 3
bx 4
b11 5
b10000000000001 7
b0 8
b10 9
b10 :
b1 <
b100000 =
b0 A
b1 i
#501000
b100 6
b1 =
#520000
0!
0#
#540000
1!
1#
b100001 .
02
b11 3
bx 4
b100 5
b100000001 7
b0 8
b10 9
b10 :
b1 <
b100000 =
b0 A
b100001 i
#541000
b100 6
b100001 =
#560000
0!
0#
#580000
1!
1#
02
b11 3
bx 4
b100 5
b1010 6
b10000100000001 7
b0 8
b10 9
b10 :
b1 <
b100001 =
b0 A
b10000 G
b100001 i
#600000
0!
0#
#620000
1!
1#
02
b11 3
bx 4
b1010 5
b0 6
b10000100000001 7
b0 8
b10 9
b100 :
b1 <
b100001 =
b0 A
b1 B
b1 C
b10000 G
b100001 i
#640000
0!
0#
#660000
1!
1#
02
b11 3
bx 4
b0 5
b1 6
b10000100000001 7
b0 8
b100 9
b100 :
b1 <
b100001 =
b0 A
b100 E
b100001 i
#680000
0!
0#
#700000
1!
1#
b100 ,
02
b100 3
bx 4
b1 5
b10000100000001 7
b0 8
b100 9
b100 :
b1 <
b100001 =
b0 A
b100001 i
#701000
b10 6
b100001 <
#720000
0!
0#
#740000
1!
1#
b11 .
02
b100 3
bx 4
b10 5
b10000100100001 7
b0 8
b100 9
b100 :
b1 <
b100001 =
b0 A
b11 i
#741000
b10 6
b11 <
#760000
0!
0#
#780000
1!
1#
02
b100 3
bx 4
b10 5
b11 6
b10000100000011 7
b0 8
b100 9
b100 :
b11 <
b100001 =
b0 A
b101 E
b11 i
#800000
0!
0#
#820000
1!
1#
b101 ,
02
b101 3
bx 4
b11 5
b10000100000011 7
b0 8
b100 9
b100 :
b11 <
b100001 =
b0 A
b11 i
#821000
b100 6
b11 =
#840000
0!
0#
#860000
1!
1#
b100011 .
02
b101 3
bx 4
b100 5
b1100000011 7
b0 8
b100 9
b100 :
b11 <
b100001 =
b0 A
b100011 i
#861000
b100 6
b100011 =
#880000
0!
0#
#900000
1!
1#
02
b101 3
bx 4
b100 5
b1010 6
b10001100000011 7
b0 8
b100 9
b100 :
b11 <
b100011 =
b0 A
b10000 G
b100011 i
#920000
0!
0#
#940000
1!
1#
02
b101 3
bx 4
b1010 5
b0 6
b10001100000011 7
b0 8
b100 9
b110 :
b11 <
b100011 =
b0 A
b11 B
b11 C
b10000 G
b100011 i
#960000
0!
0#
#980000
1!
1#
02
b101 3
bx 4
b0 5
b1 6
b10001100000011 7
b0 8
b110 9
b110 :
b11 <
b100011 =
b0 A
b110 E
b100011 i
#1000000
0!
0#
#1020000
1!
1#
b110 ,
02
b110 3
bx 4
b1 5
b10001100000011 7
b0 8
b110 9
b110 :
b11 <
b100011 =
b0 A
b100011 i
#1021000
b10 6
b100011 <
#1040000
0!
0#
#1060000
1!
1#
b1 .
02
b110 3
bx 4
b10 5
b10001100100011 7
b0 8
b110 9
b110 :
b11 <
b100011 =
b0 A
b1 i
#1061000
b10 6
b1 <
#1080000
0!
0#
#1100000
1!
1#
02
b110 3
bx 4
b10 5
b11 6
b10001100000001 7
b0 8
b110 9
b110 :
b1 <
b100011 =
b0 A
b111 E
b1 i
#1120000
0!
0#
#1140000
1!
1#
b111 ,
02
b111 3
bx 4
b11 5
b10001100000001 7
b0 8
b110 9
b110 :
b1 <
b100011 =
b0 A
b1 i
#1141000
b100 6
b1 =
#1160000
0!
0#
#1180000
1!
1#
b0 .
02
b111 3
bx 4
b100 5
b100000001 7
b0 8
b110 9
b110 :
b1 <
b100011 =
b0 A
b0 i
#1181000
b100 6
b0 =
#1200000
0!
0#
#1220000
1!
1#
02
b111 3
bx 4
b100 5
b101 6
b1 7
b0 8
b110 9
b110 :
b1 <
b0 =
b0 A
b10000 G
b0 i
#1240000
0!
0#
#1260000
1!
1#
b0 %
b0 &
b1 '
b1 (
b0 /
b0 0
b1 1
02
b111 3
bx 4
b101 5
b0 6
b1 7
b0 8
b110 9
b1000 :
b1 <
b0 =
b0 A
b1 B
b0 C
b10000 G
b1 ^
b0 _
b0 i
#1280000
0!
0#
#1300000
1!
1#
02
b111 3
bx 4
b0 5
b1 6
b1 7
b0 8
b1000 9
b1000 :
b1 <
b0 =
b0 A
b1000 E
b0 i
#1320000
0!
0#
#1340000
1!
1#
b1000 ,
02
b1000 3
bx 4
b1 5
b1 7
b0 8
b1000 9
b1000 :
b1 <
b0 =
b0 A
b0 i
#1341000
b10 6
b0 <
#1360000
0!
0#
#1380000
1!
1#
b100000 .
02
b1000 3
bx 4
b10 5
b0 7
b0 8
b1000 9
b1000 :
b1 <
b0 =
b0 A
b100000 i
#1381000
b10 6
b100000 <
#1400000
0!
0#
#1420000
1!
1#
02
b1000 3
bx 4
b10 5
b11 6
b100000 7
b0 8
b1000 9
b1000 :
b100000 <
b0 =
b0 A
b1001 E
b100000 i
#1440000
0!
0#
#1460000
1!
1#
b1001 ,
02
b1001 3
bx 4
b11 5
b100000 7
b0 8
b1000 9
b1000 :
b100000 <
b0 =
b0 A
b100000 i
#1461000
b100 6
b100000 =
#1480000
0!
0#
#1500000
1!
1#
b10000 .
02
b1001 3
bx 4
b100 5
b10000000100000 7
b0 8
b1000 9
b1000 :
b100000 <
b0 =
b0 A
b10000 i
#1501000
b100 6
b10000 =
#1520000
0!
0#
#1540000
1!
1#
02
b1001 3
bx 4
b100 5
b111 6
b1000000100000 7
b0 8
b1000 9
b1000 :
b100000 <
b10000 =
b0 A
b10000 G
b10000 i
#1560000
0!
0#
#1580000
1!
1#
02
b1001 3
bx 4
b111 5
b0 6
b1000000100000 7
b0 8
b1000 9
b1010 :
b100000 <
b10000 =
b0 A
b1 B
b10 C
b10000 G
b10000 i
#1600000
0!
0#
#1620000
1!
1#
02
b1001 3
bx 4
b0 5
b1 6
b1000000100000 7
b0 8
b1010 9
b1010 :
b100000 <
b10000 =
b0 A
b1010 E
b10000 i
#1640000
0!
0#
#1660000
1!
1#
b1010 ,
02
b1010 3
bx 4
b1 5
b1000000100000 7
b0 8
b1010 9
b1010 :
b100000 <
b10000 =
b0 A
b10000 i
#1661000
b10 6
b10000 <
#1680000
0!
0#
#1700000
1!
1#
b1 .
02
b1010 3
bx 4
b10 5
b1000000010000 7
b0 8
b1010 9
b1010 :
b100000 <
b10000 =
b0 A
b1 i
#1701000
b10 6
b1 <
#1720000
0!
0#
#1740000
1!
1#
02
b1010 3
bx 4
b10 5
b11 6
b1000000000001 7
b0 8
b1010 9
b1010 :
b1 <
b10000 =
b0 A
b1011 E
b1 i
#1760000
0!
0#
#1780000
1!
1#
b1011 ,
02
b1011 3
bx 4
b11 5
b1000000000001 7
b0 8
b1010 9
b1010 :
b1 <
b10000 =
b0 A
b1 i
#1781000
b100 6
b1 =
#1800000
0!
0#
#1820000
1!
1#
b10000 .
02
b1011 3
bx 4
b100 5
b100000001 7
b0 8
b1010 9
b1010 :
b1 <
b10000 =
b0 A
b10000 i
#1821000
b100 6
b10000 =
#1840000
0!
0#
#1860000
1!
1#
02
b1011 3
bx 4
b100 5
b111 6
b1000000000001 7
b0 8
b1010 9
b1010 :
b1 <
b10000 =
b0 A
b10000 G
b10000 i
#1880000
0!
0#
#1900000
1!
1#
02
b1011 3
bx 4
b111 5
b0 6
b1000000000001 7
b0 8
b1010 9
b1100 :
b1 <
b10000 =
b0 A
b1 B
b0 C
b10000 G
b10000 i
#1920000
0!
0#
#1940000
1!
1#
02
b1011 3
bx 4
b0 5
b1 6
b1000000000001 7
b0 8
b1100 9
b1100 :
b1 <
b10000 =
b0 A
b1100 E
b10000 i
#1960000
0!
0#
#1980000
1!
1#
b1100 ,
02
b1100 3
bx 4
b1 5
b1000000000001 7
b0 8
b1100 9
b1100 :
b1 <
b10000 =
b0 A
b10000 i
#1981000
b10 6
b10000 <
#2000000
0!
0#
#2020000
1!
1#
b10010 .
02
b1100 3
bx 4
b10 5
b1000000010000 7
b0 8
b1100 9
b1100 :
b1 <
b10000 =
b0 A
b10010 i
#2021000
b10 6
b10010 <
#2040000
0!
0#
#2060000
1!
1#
02
b1100 3
bx 4
b10 5
b11 6
b1000000010010 7
b0 8
b1100 9
b1100 :
b10010 <
b10000 =
b0 A
b1101 E
b10010 i
#2080000
0!
0#
#2100000
1!
1#
b1101 ,
02
b1101 3
bx 4
b11 5
b1000000010010 7
b0 8
b1100 9
b1100 :
b10010 <
b10000 =
b0 A
b10010 i
#2101000
b100 6
b10010 =
#2120000
0!
0#
#2140000
1!
1#
b10000 .
02
b1101 3
bx 4
b100 5
b1001000010010 7
b0 8
b1100 9
b1100 :
b10010 <
b10000 =
b0 A
b10000 i
#2141000
b100 6
b10000 =
#2160000
0!
0#
#2180000
1!
1#
02
b1101 3
bx 4
b100 5
b111 6
b1000000010010 7
b0 8
b1100 9
b1100 :
b10010 <
b10000 =
b0 A
b10000 G
b10000 i
#2200000
0!
0#
#2220000
1!
1#
02
b1101 3
bx 4
b111 5
b0 6
b1000000010010 7
b0 8
b1100 9
b1110 :
b10010 <
b10000 =
b0 A
b1 B
b1 C
b10000 G
b10000 i
#2240000
0!
0#
#2260000
1!
1#
02
b1101 3
bx 4
b0 5
b1 6
b1000000010010 7
b0 8
b1110 9
b1110 :
b10010 <
b10000 =
b0 A
b1110 E
b10000 i
#2280000
0!
0#
#2300000
1!
1#
b1110 ,
02
b1110 3
bx 4
b1 5
b1000000010010 7
b0 8
b1110 9
b1110 :
b10010 <
b10000 =
b0 A
b10000 i
#2301000
b10 6
b10000 <
#2320000
0!
0#
#2340000
1!
1#
b10011 .
02
b1110 3
bx 4
b10 5
b1000000010000 7
b0 8
b1110 9
b1110 :
b10010 <
b10000 =
b0 A
b10011 i
#2341000
b10 6
b10011 <
#2360000
0!
0#
#2380000
1!
1#
02
b1110 3
bx 4
b10 5
b11 6
b1000000010011 7
b0 8
b1110 9
b1110 :
b10011 <
b10000 =
b0 A
b1111 E
b10011 i
#2400000
0!
0#
#2420000
1!
1#
b1111 ,
02
b1111 3
bx 4
b11 5
b1000000010011 7
b0 8
b1110 9
b1110 :
b10011 <
b10000 =
b0 A
b10011 i
#2421000
b100 6
b10011 =
#2440000
0!
0#
#2460000
1!
1#
b110 .
02
b1111 3
bx 4
b100 5
b1001100010011 7
b0 8
b1110 9
b1110 :
b10011 <
b10000 =
b0 A
b110 i
#2461000
b100 6
b110 =
#2480000
0!
0#
#2500000
1!
1#
02
b1111 3
bx 4
b100 5
b101 6
b11000010011 7
b0 8
b1110 9
b1110 :
b10011 <
b110 =
b0 A
b10000 G
b110 i
#2520000
0!
0#
#2540000
1!
1#
b110 %
b1 &
b11 '
b110 /
b1 0
b11 1
02
b1111 3
bx 4
b101 5
b0 6
b11000010011 7
b0 8
b1110 9
b10000 :
b10011 <
b110 =
b0 A
b1 B
b1 C
b10000 G
b1 ^
b0 _
b110 i
#2560000
0!
0#
#2580000
1!
1#
02
b1111 3
bx 4
b0 5
b1 6
b11000010011 7
b0 8
b10000 9
b10000 :
b10011 <
b110 =
b0 A
b10000 E
b110 i
#2600000
0!
0#
#2620000
1!
1#
b10000 ,
02
b10000 3
bx 4
b1 5
b11000010011 7
b0 8
b10000 9
b10000 :
b10011 <
b110 =
b0 A
b110 i
#2621000
b10 6
b110 <
#2640000
0!
0#
#2660000
1!
1#
b11111011 .
02
b10000 3
bx 4
b10 5
b11000000110 7
b0 8
b10000 9
b10000 :
b10011 <
b110 =
b0 A
b11111011 i
#2661000
b10 6
b11111011 <
#2680000
0!
0#
#2700000
1!
1#
02
b10000 3
bx 4
b10 5
b11 6
b11011111011 7
b0 8
b10000 9
b10000 :
b11111011 <
b110 =
b0 A
b10001 E
b11111011 i
#2720000
0!
0#
#2740000
1!
1#
b10001 ,
02
b10001 3
bx 4
b11 5
b11011111011 7
b0 8
b10000 9
b10000 :
b11111011 <
b110 =
b0 A
b11111011 i
#2741000
b100 6
b11111011 =
#2760000
0!
0#
#2780000
1!
1#
b1000011 .
02
b10001 3
bx 4
b100 5
b1111101111111011 7
b0 8
b10000 9
b10000 :
b11111011 <
b110 =
b0 A
b1000011 i
#2781000
b100 6
b1000011 =
#2800000
0!
0#
#2820000
1!
1#
02
b10001 3
bx 4
b100 5
b110 6
b100001111111011 7
b0 8
b10000 9
b10000 :
b11111011 <
b1000011 =
b0 A
b10000 G
b1000011 i
#2840000
0!
0#
#2860000
1!
1#
02
b10001 3
bx 4
b110 5
b0 6
b100001111111011 7
b0 8
b10000 9
b10010 :
b100000110 ;
b11111011 <
b1000011 =
b0 A
b10000 G
b1000011 i
#2880000
0!
0#
#2900000
1!
1#
02
b10001 3
bx 4
b0 5
b1 6
b100001111111011 7
b0 8
b10010 9
b10010 :
b11111011 <
b1000011 =
b0 A
b10010 E
b1000011 i
#2920000
0!
0#
#2940000
1!
1#
b10010 ,
02
b10010 3
bx 4
b1 5
b100001111111011 7
b0 8
b10010 9
b10010 :
b11111011 <
b1000011 =
b0 A
b1000011 i
#2941000
b10 6
b1000011 <
#2960000
0!
0#
#2980000
1!
1#
b0 .
02
b10010 3
bx 4
b10 5
b100001101000011 7
b0 8
b10010 9
b10010 :
b11111011 <
b1000011 =
b0 A
b0 i
#2981000
b10 6
b0 <
#3000000
0!
0#
#3020000
1!
1#
02
b10010 3
bx 4
b10 5
b11 6
b100001100000000 7
b0 8
b10010 9
b10010 :
b0 <
b1000011 =
b0 A
b10011 E
b0 i
#3040000
0!
0#
#3060000
1!
1#
b10011 ,
02
b10011 3
bx 4
b11 5
b100001100000000 7
b0 8
b10010 9
b10010 :
b0 <
b1000011 =
b0 A
b0 i
#3061000
b100 6
b0 =
#3080000
0!
0#
#3100000
1!
1#
b101110 .
02
b10011 3
bx 4
b100 5
b0 7
b0 8
b10010 9
b10010 :
b0 <
b1000011 =
b0 A
b101110 i
#3101000
b100 6
b101110 =
#3120000
0!
0#
#3140000
1!
1#
02
b10011 3
bx 4
b100 5
b1010 6
b10111000000000 7
b0 8
b10010 9
b10010 :
b0 <
b101110 =
b0 A
b10000 G
b101110 i
#3160000
0!
0#
#3180000
1!
1#
02
b10011 3
bx 4
b1010 5
b0 6
b10111000000000 7
b0 8
b10010 9
b10100 :
b0 <
b101110 =
b0 A
b0 B
b1110 C
b10000 G
b101110 i
#3200000
0!
0#
#3220000
1!
1#
02
b10011 3
bx 4
b0 5
b1 6
b10111000000000 7
b0 8
b10100 9
b10100 :
b0 <
b101110 =
b0 A
b10100 E
b101110 i
#3240000
0!
0#
#3260000
1!
1#
b10100 ,
02
b10100 3
bx 4
b1 5
b10111000000000 7
b0 8
b10100 9
b10100 :
b0 <
b101110 =
b0 A
b101110 i
#3261000
b10 6
b101110 <
#3280000
0!
0#
#3300000
1!
1#
b110010 .
02
b10100 3
bx 4
b10 5
b10111000101110 7
b0 8
b10100 9
b10100 :
b0 <
b101110 =
b0 A
b110010 i
#3301000
b10 6
b110010 <
#3320000
0!
0#
#3340000
1!
1#
02
b10100 3
bx 4
b10 5
b11 6
b10111000110010 7
b0 8
b10100 9
b10100 :
b110010 <
b101110 =
b0 A
b10101 E
b110010 i
#3360000
0!
0#
#3380000
1!
1#
b10101 ,
02
b10101 3
bx 4
b11 5
b10111000110010 7
b0 8
b10100 9
b10100 :
b110010 <
b101110 =
b0 A
b110010 i
#3381000
b100 6
b110010 =
#3400000
0!
0#
#3420000
1!
1#
b101111 .
02
b10101 3
bx 4
b100 5
b11001000110010 7
b0 8
b10100 9
b10100 :
b110010 <
b101110 =
b0 A
b101111 i
#3421000
b100 6
b101111 =
#3440000
0!
0#
#3460000
1!
1#
02
b10101 3
bx 4
b100 5
b1010 6
b10111100110010 7
b0 8
b10100 9
b10100 :
b110010 <
b101111 =
b0 A
b10000 G
b101111 i
#3480000
0!
0#
#3500000
1!
1#
02
b10101 3
bx 4
b1010 5
b0 6
b10111100110010 7
b0 8
b10100 9
b10110 :
b110010 <
b101111 =
b0 A
b110010 B
b1111 C
b10000 G
b101111 i
#3520000
0!
0#
#3540000
1!
1#
02
b10101 3
bx 4
b0 5
b1 6
b10111100110010 7
b0 8
b10110 9
b10110 :
b110010 <
b101111 =
b0 A
b10110 E
b101111 i
#3560000
0!
0#
#3580000
1!
1#
b10110 ,
02
b10110 3
bx 4
b1 5
b10111100110010 7
b0 8
b10110 9
b10110 :
b110010 <
b101111 =
b0 A
b101111 i
#3581000
b10 6
b101111 <
#3600000
0!
0#
#3620000
1!
1#
b10000 .
02
b10110 3
bx 4
b10 5
b10111100101111 7
b0 8
b10110 9
b10110 :
b110010 <
b101111 =
b0 A
b10000 i
#3621000
b10 6
b10000 <
#3640000
0!
0#
#3660000
1!
1#
02
b10110 3
bx 4
b10 5
b11 6
b10111100010000 7
b0 8
b10110 9
b10110 :
b10000 <
b101111 =
b0 A
b10111 E
b10000 i
#3680000
0!
0#
#3700000
1!
1#
b10111 ,
02
b10111 3
bx 4
b11 5
b10111100010000 7
b0 8
b10110 9
b10110 :
b10000 <
b101111 =
b0 A
b10000 i
#3701000
b100 6
b10000 =
#3720000
0!
0#
#3740000
1!
1#
b10010 .
02
b10111 3
bx 4
b100 5
b1000000010000 7
b0 8
b10110 9
b10110 :
b10000 <
b101111 =
b0 A
b10010 i
#3741000
b100 6
b10010 =
#3760000
0!
0#
#3780000
1!
1#
02
b10111 3
bx 4
b100 5
b1001 6
b1001000010000 7
b0 8
b10110 9
b10110 :
b10000 <
b10010 =
b0 A
1D
b110010 E
b1 F
b10000 G
b10010 i
#3800000
0!
0#
#3820000
1!
1#
1+
b110010 ,
b1 -
12
b110010 3
b1 4
b1001 5
b0 6
b1001000010000 7
b0 8
b10110 9
b11000 :
b10000 <
b10010 =
b0 A
1D
b110010 E
b1 F
b10000 G
b10010 i
#3840000
0!
0#
#3860000
1!
1#
12
b110010 3
b1 4
b0 5
b1 6
b1001000010000 7
b0 8
b11000 9
b11000 :
b10000 <
b10010 =
b0 A
0D
b11000 E
#3880000
0!
0#
#3900000
1!
1#
0+
b11000 ,
02
b11000 3
b1 4
b1 5
b1001000010000 7
b0 8
b11000 9
b11000 :
b10000 <
b10010 =
b0 A
#3901000
b10 6
b10010 <
#3920000
0!
0#
#3940000
1!
1#
bx .
02
b11000 3
b1 4
b10 5
b1001000010010 7
b0 8
b11000 9
b11000 :
b10000 <
b10010 =
b0 A
bx i
#3941000
b10 6
bx <
#3960000
0!
0#
#3980000
1!
1#
02
b11000 3
b1 4
b10 5
b11 6
b10010xxxxxxxx 7
b0 8
b11000 9
b11000 :
bx <
b10010 =
b0 A
b11001 E
bx i
#4000000
0!
0#
#4020000
1!
1#
b11001 ,
02
b11001 3
b1 4
b11 5
b10010xxxxxxxx 7
b0 8
b11000 9
b11000 :
bx <
b10010 =
b0 A
bx i
#4021000
b100 6
bx =
#4040000
0!
0#
#4060000
1!
1#
02
b11001 3
b1 4
b100 5
bx 7
b0 8
b11000 9
b11000 :
bx <
bx =
b0 A
bx i
#4080000
0!
0#
#4100000
1!
1#
02
b11001 3
b1 4
b100 5
bx 7
b0 8
b11000 9
b10000 G
bx i
#4120000
0!
0#
#4140000
1!
1#
02
b11001 3
b1 4
b100 5
bx 7
b0 8
b11000 9
b10000 G
bx i
#4160000
0!
0#
#4180000
1!
1#
02
b11001 3
b1 4
b100 5
bx 7
b0 8
b11000 9
b10000 G
bx i
#4200000
0!
0#
#4220000
1!
1#
02
b11001 3
b1 4
b100 5
bx 7
b0 8
b11000 9
b10000 G
bx i
#4240000
0!
0#
#4260000
1!
1#
02
b11001 3
b1 4
b100 5
bx 7
b0 8
b11000 9
b10000 G
bx i
#4280000
0!
0#
#4300000
1!
1#
02
b11001 3
b1 4
b100 5
bx 7
b0 8
b11000 9
b10000 G
bx i
#4320000
0!
0#
#4340000
1!
1#
02
b11001 3
b1 4
b100 5
bx 7
b0 8
b11000 9
b10000 G
bx i
#4360000
0!
0#
#4380000
1!
1#
02
b11001 3
b1 4
b100 5
bx 7
b0 8
b11000 9
b10000 G
bx i
#4400000
0!
0#
#4420000
1!
1#
02
b11001 3
b1 4
b100 5
bx 7
b0 8
b11000 9
b10000 G
bx i
#4440000
0!
0#
#4460000
1!
1#
02
b11001 3
b1 4
b100 5
bx 7
b0 8
b11000 9
b10000 G
bx i
#4480000
0!
0#
#4500000
1!
1#
02
b11001 3
b1 4
b100 5
bx 7
b0 8
b11000 9
b10000 G
bx i
#4520000
0!
0#
#4540000
1!
1#
02
b11001 3
b1 4
b100 5
bx 7
b0 8
b11000 9
b10000 G
bx i
#4560000
0!
0#
#4580000
1!
1#
02
b11001 3
b1 4
b100 5
bx 7
b0 8
b11000 9
b10000 G
bx i
#4600000
0!
0#
#4620000
1!
1#
02
b11001 3
b1 4
b100 5
bx 7
b0 8
b11000 9
b10000 G
bx i
#4640000
0!
0#
#4660000
1!
1#
02
b11001 3
b1 4
b100 5
bx 7
b0 8
b11000 9
b10000 G
bx i
#4680000
0!
0#
#4700000
1!
1#
02
b11001 3
b1 4
b100 5
bx 7
b0 8
b11000 9
b10000 G
bx i
#4720000
0!
0#
#4740000
1!
1#
02
b11001 3
b1 4
b100 5
bx 7
b0 8
b11000 9
b10000 G
bx i
#4760000
0!
0#
#4780000
1!
1#
02
b11001 3
b1 4
b100 5
bx 7
b0 8
b11000 9
b10000 G
bx i
#4800000
0!
0#
#4820000
1!
1#
02
b11001 3
b1 4
b100 5
bx 7
b0 8
b11000 9
b10000 G
bx i
#4840000
0!
0#
#4860000
1!
1#
02
b11001 3
b1 4
b100 5
bx 7
b0 8
b11000 9
b10000 G
bx i
#4880000
0!
0#
#4900000
1!
1#
02
b11001 3
b1 4
b100 5
bx 7
b0 8
b11000 9
b10000 G
bx i
#4920000
0!
0#
#4940000
1!
1#
02
b11001 3
b1 4
b100 5
bx 7
b0 8
b11000 9
b10000 G
bx i
#4960000
0!
0#
#4980000
1!
1#
02
b11001 3
b1 4
b100 5
bx 7
b0 8
b11000 9
b10000 G
bx i
#5000000
0!
0#
#5020000
1!
1#
02
b11001 3
b1 4
b100 5
bx 7
b0 8
b11000 9
b10000 G
bx i
#5040000
0!
0#
#5060000
1!
1#
02
b11001 3
b1 4
b100 5
bx 7
b0 8
b11000 9
b10000 G
bx i
#5080000
0!
0#
